{
    "m_ClassifierDirectory": "Watson/Scripts/Editor/Classifiers/",
    "m_TimeOut": 30.0,
    "m_MaxRestConnections": 5,
    "m_Credentials": [
        {
            "m_ServiceID": "SpeechToTextV1",
            "m_URL": "https://stream.watsonplatform.net/speech-to-text/api",
            "m_User": "ed9defdc-aa1f-4f0b-9052-8d739210cbd8",
            "m_Password": "W2ijCFWgvfSH",
            "m_Apikey": null,
            "m_Note": null
        }
    ],
    "m_Variables": []
}